<?xml version="1.0" encoding="UTF-8" standalone="no"?>
<!-- Created with Inkscape (http://www.inkscape.org/) -->

<svg
   xmlns:dc="http://purl.org/dc/elements/1.1/"
   xmlns:cc="http://creativecommons.org/ns#"
   xmlns:rdf="http://www.w3.org/1999/02/22-rdf-syntax-ns#"
   xmlns:svg="http://www.w3.org/2000/svg"
   xmlns="http://www.w3.org/2000/svg"
   xmlns:sodipodi="http://sodipodi.sourceforge.net/DTD/sodipodi-0.dtd"
   xmlns:inkscape="http://www.inkscape.org/namespaces/inkscape"
   width="401"
   height="51"
   id="svg2"
   version="1.1"
   inkscape:version="0.48.4 r9939"
   sodipodi:docname="bits.pdf">
  <defs
     id="defs4" />
  <sodipodi:namedview
     id="base"
     pagecolor="#ffffff"
     bordercolor="#666666"
     borderopacity="1.0"
     inkscape:pageopacity="0.0"
     inkscape:pageshadow="2"
     inkscape:zoom="2.798005"
     inkscape:cx="191.03546"
     inkscape:cy="23.616722"
     inkscape:document-units="px"
     inkscape:current-layer="layer1"
     showgrid="false"
     showguides="true"
     inkscape:guide-bbox="true"
     fit-margin-top="0"
     fit-margin-left="0"
     fit-margin-right="0"
     fit-margin-bottom="0"
     units="px"
     inkscape:window-width="1639"
     inkscape:window-height="841"
     inkscape:window-x="203"
     inkscape:window-y="107"
     inkscape:window-maximized="0">
    <sodipodi:guide
       orientation="0,1"
       position="339.82143,25"
       id="guide3836" />
    <sodipodi:guide
       orientation="1,0"
       position="375,21.071429"
       id="guide3838" />
    <sodipodi:guide
       orientation="1,0"
       position="175,25"
       id="guide3879" />
    <sodipodi:guide
       orientation="1,0"
       position="25,81.428572"
       id="guide3920" />
  </sodipodi:namedview>
  <metadata
     id="metadata7">
    <rdf:RDF>
      <cc:Work
         rdf:about="">
        <dc:format>image/svg+xml</dc:format>
        <dc:type
           rdf:resource="http://purl.org/dc/dcmitype/StillImage" />
        <dc:title></dc:title>
      </cc:Work>
    </rdf:RDF>
  </metadata>
  <g
     inkscape:label="Layer 1"
     inkscape:groupmode="layer"
     id="layer1"
     transform="translate(6.1549829e-4,0.62499935)">
    <rect
       style="fill:#e6e6e6;fill-opacity:1;stroke:#666666;stroke-width:1;stroke-linecap:round;stroke-linejoin:round;stroke-miterlimit:4;stroke-opacity:1;stroke-dasharray:none;stroke-dashoffset:0"
       id="rect2985"
       width="400"
       height="50"
       x="0.5"
       y="-0.13781738" />
    <rect
       style="fill:#aaffaa;fill-opacity:1;stroke:#000000;stroke-width:0;stroke-linecap:round;stroke-linejoin:round;stroke-miterlimit:4;stroke-opacity:1;stroke-dasharray:none;stroke-dashoffset:0"
       id="rect3062-5-3"
       width="49.09066"
       height="48.928574"
       x="0.96855414"
       y="0.42222446" />
    <rect
       style="fill:#aaeeff;fill-opacity:1;stroke:#000000;stroke-width:0;stroke-linecap:round;stroke-linejoin:round;stroke-miterlimit:4;stroke-opacity:1;stroke-dasharray:none;stroke-dashoffset:0"
       id="rect3062-5"
       width="98.767494"
       height="48.928574"
       x="151.02615"
       y="0.37499961" />
    <rect
       style="fill:#ffeeaa;fill-opacity:1;stroke:#000000;stroke-width:0;stroke-linecap:round;stroke-linejoin:round;stroke-miterlimit:4;stroke-opacity:1;stroke-dasharray:none;stroke-dashoffset:0"
       id="rect3062"
       width="149.347"
       height="48.928574"
       x="250.65302"
       y="0.39789411" />
    <g
       id="g3053"
       transform="translate(-0.7134799,27.818277)"
       style="fill:#b3b3b3">
      <path
         inkscape:connector-curvature="0"
         id="path2987"
         d="m 51.191549,21.607264 0,-49.740162"
         style="fill:#a1a1a1;fill-opacity:1;stroke:#575757;stroke-width:0.99621564px;stroke-linecap:butt;stroke-linejoin:miter;stroke-opacity:1" />
      <path
         inkscape:connector-curvature="0"
         id="path2987-8"
         d="m 301.19811,21.864075 0,-49.740162"
         style="fill:#a1a1a1;fill-opacity:1;stroke:#575757;stroke-width:0.99621564px;stroke-linecap:butt;stroke-linejoin:miter;stroke-opacity:1" />
      <path
         inkscape:connector-curvature="0"
         id="path2987-9"
         d="m 251.19811,21.864075 0,-49.740162"
         style="fill:#a1a1a1;fill-opacity:1;stroke:#575757;stroke-width:0.99621564px;stroke-linecap:butt;stroke-linejoin:miter;stroke-opacity:1" />
      <path
         inkscape:connector-curvature="0"
         id="path2987-7"
         d="m 201.19811,21.864075 0,-49.740162"
         style="fill:#a1a1a1;fill-opacity:1;stroke:#575757;stroke-width:0.99621564px;stroke-linecap:butt;stroke-linejoin:miter;stroke-opacity:1" />
      <path
         inkscape:connector-curvature="0"
         id="path2987-94"
         d="m 151.19811,21.864075 0,-49.740162"
         style="fill:#a1a1a1;fill-opacity:1;stroke:#575757;stroke-width:0.99621564px;stroke-linecap:butt;stroke-linejoin:miter;stroke-opacity:1" />
      <path
         inkscape:connector-curvature="0"
         id="path2987-78"
         d="m 101.19811,21.864075 0,-49.740163"
         style="fill:#a1a1a1;fill-opacity:1;stroke:#575757;stroke-width:0.99621564px;stroke-linecap:butt;stroke-linejoin:miter;stroke-opacity:1" />
      <path
         inkscape:connector-curvature="0"
         id="path2987-8-5"
         d="m 351.19811,21.864075 0,-49.740164"
         style="fill:#9a9a9a;fill-opacity:1;stroke:#575757;stroke-width:0.99621564px;stroke-linecap:butt;stroke-linejoin:miter;stroke-opacity:1" />
    </g>
    <text
       xml:space="preserve"
       style="font-size:14px;font-style:normal;font-variant:normal;font-weight:normal;font-stretch:normal;line-height:125%;letter-spacing:0px;word-spacing:0px;fill:#000000;fill-opacity:1;stroke:none;font-family:Courier 10 Pitch;-inkscape-font-specification:Courier 10 Pitch"
       x="268.05786"
       y="32.382763"
       id="text3832"
       sodipodi:linespacing="125%"><tspan
         sodipodi:role="line"
         id="tspan3834"
         x="268.05786"
         y="32.382763"
         style="font-size:22px">baud rate</tspan></text>
    <text
       xml:space="preserve"
       style="font-size:14px;font-style:normal;font-variant:normal;font-weight:normal;font-stretch:normal;line-height:125%;letter-spacing:0px;word-spacing:0px;fill:#000000;fill-opacity:1;stroke:none;font-family:Courier 10 Pitch;-inkscape-font-specification:Courier 10 Pitch"
       x="159.81551"
       y="30.603006"
       id="text3832-3"
       sodipodi:linespacing="125%"><tspan
         sodipodi:role="line"
         id="tspan3834-6"
         x="159.81551"
         y="30.603006"
         style="font-size:22px">parity</tspan></text>
    <text
       xml:space="preserve"
       style="font-size:14px;font-style:normal;font-variant:normal;font-weight:normal;font-stretch:normal;line-height:125%;letter-spacing:0px;word-spacing:0px;fill:#000000;fill-opacity:1;stroke:none;font-family:Courier 10 Pitch;-inkscape-font-specification:Courier 10 Pitch"
       x="11.261556"
       y="31.98514"
       id="text3832-3-7"
       sodipodi:linespacing="125%"><tspan
         sodipodi:role="line"
         id="tspan3834-6-3"
         x="11.261556"
         y="31.98514"
         style="font-size:22px">IE</tspan></text>
    <text
       xml:space="preserve"
       style="font-size:14px;font-style:normal;font-variant:normal;font-weight:normal;font-stretch:normal;line-height:125%;letter-spacing:0px;word-spacing:0px;fill:#454837;fill-opacity:1;stroke:none;font-family:Courier 10 Pitch;-inkscape-font-specification:Courier 10 Pitch"
       x="34.999386"
       y="46.089287"
       id="text3922"
       sodipodi:linespacing="125%"><tspan
         sodipodi:role="line"
         id="tspan3924"
         x="34.999386"
         y="46.089287"
         style="fill:#454837">7     6     5     4     3     2     1     0</tspan></text>
    <text
       xml:space="preserve"
       style="font-size:14px;font-style:normal;font-variant:normal;font-weight:normal;font-stretch:normal;line-height:125%;letter-spacing:0px;word-spacing:0px;fill:#000000;fill-opacity:1;stroke:none;font-family:Courier 10 Pitch;-inkscape-font-specification:Courier 10 Pitch"
       x="60.399563"
       y="32.24773"
       id="text3126"
       sodipodi:linespacing="125%"><tspan
         sodipodi:role="line"
         id="tspan3128"
         x="60.399563"
         y="32.24773"
         style="font-size:22px">Unused</tspan></text>
  </g>
</svg>
