digraph Drone {
  rankdir=LR;
  size="8,5"
  margin="0"
  node [shape = circle]; off on calibrate flying;
  node [shape = point];
  __StateMachineInitialPoint -> off;
  off -> on [label="onoff "];
  on -> off [label="onoff "];
  on -> calibrate [label="calibrate "];
  on -> flying [label="fly"];
  calibrate -> on
  flying -> on [label="land"];
  flying -> flying [label="fly"]
}
