<?xml version="1.0" encoding="UTF-8" standalone="no"?>
<!-- Created with Inkscape (http://www.inkscape.org/) -->

<svg
   xmlns:dc="http://purl.org/dc/elements/1.1/"
   xmlns:cc="http://creativecommons.org/ns#"
   xmlns:rdf="http://www.w3.org/1999/02/22-rdf-syntax-ns#"
   xmlns:svg="http://www.w3.org/2000/svg"
   xmlns="http://www.w3.org/2000/svg"
   xmlns:sodipodi="http://sodipodi.sourceforge.net/DTD/sodipodi-0.dtd"
   xmlns:inkscape="http://www.inkscape.org/namespaces/inkscape"
   width="157"
   height="120"
   id="svg2"
   version="1.1"
   inkscape:version="0.48.4 r9939"
   sodipodi:docname="modules.pdf">
  <defs
     id="defs4" />
  <sodipodi:namedview
     id="base"
     pagecolor="#ffffff"
     bordercolor="#666666"
     borderopacity="1.0"
     inkscape:pageopacity="0.0"
     inkscape:pageshadow="2"
     inkscape:zoom="4"
     inkscape:cx="69.149171"
     inkscape:cy="46.560125"
     inkscape:document-units="px"
     inkscape:current-layer="layer1"
     showgrid="false"
     showguides="true"
     inkscape:guide-bbox="true"
     fit-margin-top="0"
     fit-margin-left="0"
     fit-margin-right="0"
     fit-margin-bottom="0"
     inkscape:window-width="1647"
     inkscape:window-height="898"
     inkscape:window-x="148"
     inkscape:window-y="74"
     inkscape:window-maximized="0">
    <sodipodi:guide
       orientation="1,0"
       position="7.2500001,49.669068"
       id="guide3816" />
    <sodipodi:guide
       orientation="1,0"
       position="131.99992,47.218751"
       id="guide4932" />
    <sodipodi:guide
       orientation="0,1"
       position="43.499985,29.250001"
       id="guide4970" />
  </sodipodi:namedview>
  <metadata
     id="metadata7">
    <rdf:RDF>
      <cc:Work
         rdf:about="">
        <dc:format>image/svg+xml</dc:format>
        <dc:type
           rdf:resource="http://purl.org/dc/dcmitype/StillImage" />
        <dc:title></dc:title>
      </cc:Work>
    </rdf:RDF>
  </metadata>
  <g
     inkscape:label="Layer 1"
     inkscape:groupmode="layer"
     id="layer1"
     transform="translate(0,19.46875)">
    <rect
       style="fill:#e6e6e6;fill-opacity:1;stroke:#575757;stroke-width:1;stroke-linecap:round;stroke-linejoin:round;stroke-miterlimit:4;stroke-opacity:1;stroke-dasharray:none;stroke-dashoffset:0"
       id="rect2985"
       width="156"
       height="119"
       x="0.5"
       y="-18.96875" />
    <rect
       style="fill:#ffeeaa;fill-opacity:1;stroke:#575757;stroke-width:0.99999994;stroke-linecap:round;stroke-linejoin:round;stroke-miterlimit:4;stroke-opacity:1;stroke-dasharray:none;stroke-dashoffset:0"
       id="rect3786"
       width="142"
       height="14"
       x="7.5000005"
       y="79.03125" />
    <text
       xml:space="preserve"
       style="font-size:22px;font-style:normal;font-variant:normal;font-weight:normal;font-stretch:normal;line-height:125%;letter-spacing:0px;word-spacing:0px;fill:#000000;fill-opacity:1;stroke:none;font-family:Courier 10 Pitch;-inkscape-font-specification:Courier 10 Pitch"
       x="84.466675"
       y="89.762169"
       id="text3788"
       sodipodi:linespacing="125%"><tspan
         sodipodi:role="line"
         id="tspan3790"
         x="84.466675"
         y="89.762169"
         style="font-size:14px;text-align:center;text-anchor:middle">BaseC</tspan></text>
    <rect
       style="fill:#aaffaa;fill-opacity:1;stroke:#575757;stroke-width:0.99999994;stroke-linecap:round;stroke-linejoin:round;stroke-miterlimit:4;stroke-opacity:1;stroke-dasharray:none;stroke-dashoffset:0"
       id="rect3786-0"
       width="142"
       height="14"
       x="7.5000005"
       y="-11.968751" />
    <text
       xml:space="preserve"
       style="font-size:22px;font-style:normal;font-variant:normal;font-weight:normal;font-stretch:normal;line-height:125%;letter-spacing:0px;word-spacing:0px;fill:#000000;fill-opacity:1;stroke:none;font-family:Courier 10 Pitch;-inkscape-font-specification:Courier 10 Pitch"
       x="84.956673"
       y="-1.3287508"
       id="text3788-2"
       sodipodi:linespacing="125%"><tspan
         sodipodi:role="line"
         id="tspan3790-1"
         x="84.956673"
         y="-1.3287508"
         style="font-size:14px;text-align:center;text-anchor:middle">MetaC</tspan></text>
    <rect
       style="fill:#aaeeff;fill-opacity:1;stroke:#575757;stroke-width:1;stroke-linecap:round;stroke-linejoin:round;stroke-miterlimit:4;stroke-opacity:1;stroke-dasharray:none;stroke-dashoffset:0"
       id="rect3786-0-5"
       width="19"
       height="61"
       x="7.4999228"
       y="10.031251" />
    <rect
       style="fill:#ffaac5;fill-opacity:1;stroke:#575757;stroke-width:1;stroke-linecap:round;stroke-linejoin:round;stroke-miterlimit:4;stroke-opacity:1;stroke-dasharray:none;stroke-dashoffset:0"
       id="rect3786-0-5-2"
       width="19"
       height="61"
       x="35.499985"
       y="10.031251" />
    <rect
       style="fill:#aab9ff;fill-opacity:1;stroke:#575757;stroke-width:1;stroke-linecap:round;stroke-linejoin:round;stroke-miterlimit:4;stroke-opacity:1;stroke-dasharray:none;stroke-dashoffset:0"
       id="rect3786-0-5-2-0"
       width="19"
       height="61"
       x="62.499985"
       y="10.031251"
       inkscape:transform-center-x="23.5"
       inkscape:transform-center-y="4.0914644" />
    <rect
       style="fill:#ffccaa;fill-opacity:1;stroke:#575757;stroke-width:1;stroke-linecap:round;stroke-linejoin:round;stroke-miterlimit:4;stroke-opacity:1;stroke-dasharray:none;stroke-dashoffset:0"
       id="rect3786-0-5-2-0-2"
       width="19"
       height="61"
       x="89.499985"
       y="10.031249"
       inkscape:transform-center-x="23.5"
       inkscape:transform-center-y="4.0914644" />
    <text
       xml:space="preserve"
       style="font-size:14px;font-style:normal;font-variant:normal;font-weight:normal;font-stretch:normal;line-height:92.00000167%;letter-spacing:0px;word-spacing:0px;fill:#000000;fill-opacity:1;stroke:none;font-family:Courier 10 Pitch;-inkscape-font-specification:Courier 10 Pitch"
       x="-41.762939"
       y="15.114553"
       id="text5008"
       sodipodi:linespacing="92.000002%"
       transform="matrix(-0.00842264,-0.99996453,0.99996453,-0.00842264,0,0)"><tspan
         sodipodi:role="line"
         x="-41.762939"
         y="15.114553"
         id="tspan5012"
         style="font-size:8px;text-align:center;line-height:92.00000167%;text-anchor:middle">Bit</tspan><tspan
         sodipodi:role="line"
         x="-41.762939"
         y="22.474554"
         style="font-size:8px;text-align:center;line-height:92.00000167%;text-anchor:middle"
         id="tspan5040">Fields</tspan></text>
    <text
       xml:space="preserve"
       style="font-size:14px;font-style:normal;font-variant:normal;font-weight:normal;font-stretch:normal;line-height:92.00000167%;letter-spacing:0px;word-spacing:0px;fill:#000000;fill-opacity:1;stroke:none;font-family:Courier 10 Pitch;-inkscape-font-specification:Courier 10 Pitch"
       x="-42.185482"
       y="43.25721"
       id="text5008-1"
       sodipodi:linespacing="92.000002%"
       transform="matrix(-0.00842264,-0.99996453,0.99996453,-0.00842264,0,0)"><tspan
         sodipodi:role="line"
         id="tspan5010-5"
         x="-42.185482"
         y="43.25721"
         style="font-size:8px;text-align:center;line-height:92.00000167%;text-anchor:middle">State</tspan><tspan
         sodipodi:role="line"
         x="-42.185482"
         y="50.61721"
         id="tspan5012-5"
         style="font-size:8px;text-align:center;line-height:92.00000167%;text-anchor:middle">Machines</tspan></text>
    <text
       xml:space="preserve"
       style="font-size:14px;font-style:normal;font-variant:normal;font-weight:normal;font-stretch:normal;line-height:92.00000167%;letter-spacing:0px;word-spacing:0px;fill:#000000;fill-opacity:1;stroke:none;font-family:Courier 10 Pitch;-inkscape-font-specification:Courier 10 Pitch"
       x="-42.506401"
       y="73.673737"
       id="text5008-7"
       sodipodi:linespacing="92.000002%"
       transform="matrix(-0.00842264,-0.99996453,0.99996453,-0.00842264,0,0)"><tspan
         sodipodi:role="line"
         x="-42.506401"
         y="73.673737"
         id="tspan5012-1"
         style="font-size:8px;text-align:center;line-height:92.00000167%;text-anchor:middle">Concurrency</tspan></text>
    <text
       xml:space="preserve"
       style="font-size:14px;font-style:normal;font-variant:normal;font-weight:normal;font-stretch:normal;line-height:92.00000167%;letter-spacing:0px;word-spacing:0px;fill:#000000;fill-opacity:1;stroke:none;font-family:Courier 10 Pitch;-inkscape-font-specification:Courier 10 Pitch"
       x="-42.065533"
       y="97.073463"
       id="text5008-16"
       sodipodi:linespacing="92.000002%"
       transform="matrix(-0.00842264,-0.99996453,0.99996453,-0.00842264,0,0)"><tspan
         sodipodi:role="line"
         x="-42.065533"
         y="97.073463"
         id="tspan5012-8"
         style="font-size:8px;text-align:center;line-height:92.00000167%;text-anchor:middle">Error</tspan><tspan
         sodipodi:role="line"
         x="-42.065533"
         y="104.43346"
         style="font-size:8px;text-align:center;line-height:92.00000167%;text-anchor:middle"
         id="tspan5068">Handling</tspan></text>
  </g>
</svg>
